<svg width="53" height="32" viewBox="0 0 53 32" fill="none" xmlns="http://www.w3.org/2000/svg">
<path d="M52.9751 30.3243C35.4853 36.129 18.1899 24.5197 0.7001 30.3243C0.7001 20.7748 0.7001 11.2252 0.7001 1.67565C18.1899 -4.12898 35.4853 7.48029 52.9751 1.67565C52.9751 11.2252 52.9751 20.7748 52.9751 30.3243Z" fill="#FF6633"/>
</svg>
