<svg width="186" height="72" viewBox="0 0 186 72" fill="none" xmlns="http://www.w3.org/2000/svg">
<g filter="url(#filter0_d_449_20892)">
<rect x="20" y="16" width="146" height="32" rx="16" fill="white"/>
<path d="M44.8047 37H43.4854V32.3994H38.4678V37H37.1553V27.0469H38.4678V31.3262H43.4854V27.0469H44.8047V37ZM51.5039 37C51.431 36.8542 51.3717 36.5944 51.3262 36.2207C50.7383 36.8314 50.0365 37.1367 49.2207 37.1367C48.4915 37.1367 47.8923 36.9316 47.4229 36.5215C46.958 36.1068 46.7256 35.5827 46.7256 34.9492C46.7256 34.179 47.0173 33.582 47.6006 33.1582C48.1885 32.7298 49.0133 32.5156 50.0752 32.5156H51.3057V31.9346C51.3057 31.4925 51.1735 31.1416 50.9092 30.8818C50.6449 30.6175 50.2552 30.4854 49.7402 30.4854C49.2891 30.4854 48.9108 30.5993 48.6055 30.8271C48.3001 31.055 48.1475 31.3307 48.1475 31.6543H46.876C46.876 31.2852 47.0059 30.9297 47.2656 30.5879C47.5299 30.2415 47.8854 29.9681 48.332 29.7676C48.7832 29.5671 49.2777 29.4668 49.8154 29.4668C50.6676 29.4668 51.3353 29.681 51.8184 30.1094C52.3014 30.5332 52.5521 31.1188 52.5703 31.8662V35.2705C52.5703 35.9495 52.6569 36.4896 52.8301 36.8906V37H51.5039ZM49.4053 36.0361C49.8018 36.0361 50.1777 35.9336 50.5332 35.7285C50.8887 35.5234 51.1462 35.2568 51.3057 34.9287V33.4111H50.3145C48.765 33.4111 47.9902 33.8646 47.9902 34.7715C47.9902 35.168 48.1224 35.4779 48.3867 35.7012C48.651 35.9245 48.9906 36.0361 49.4053 36.0361ZM60.1377 37H58.8662V34.3203C58.3102 34.4661 57.7406 34.5391 57.1572 34.5391C56.2321 34.5391 55.5257 34.3021 55.0381 33.8281C54.555 33.3542 54.3089 32.6797 54.2998 31.8047V29.5967H55.5645V31.8457C55.5872 32.9486 56.1182 33.5 57.1572 33.5C57.7406 33.5 58.3102 33.4271 58.8662 33.2812V29.6035H60.1377V37ZM66.7344 37C66.6615 36.8542 66.6022 36.5944 66.5566 36.2207C65.9688 36.8314 65.2669 37.1367 64.4512 37.1367C63.722 37.1367 63.1227 36.9316 62.6533 36.5215C62.1885 36.1068 61.9561 35.5827 61.9561 34.9492C61.9561 34.179 62.2477 33.582 62.8311 33.1582C63.4189 32.7298 64.2438 32.5156 65.3057 32.5156H66.5361V31.9346C66.5361 31.4925 66.404 31.1416 66.1396 30.8818C65.8753 30.6175 65.4857 30.4854 64.9707 30.4854C64.5195 30.4854 64.1413 30.5993 63.8359 30.8271C63.5306 31.055 63.3779 31.3307 63.3779 31.6543H62.1064C62.1064 31.2852 62.2363 30.9297 62.4961 30.5879C62.7604 30.2415 63.1159 29.9681 63.5625 29.7676C64.0137 29.5671 64.5081 29.4668 65.0459 29.4668C65.8981 29.4668 66.5658 29.681 67.0488 30.1094C67.5319 30.5332 67.7826 31.1188 67.8008 31.8662V35.2705C67.8008 35.9495 67.8874 36.4896 68.0605 36.8906V37H66.7344ZM64.6357 36.0361C65.0322 36.0361 65.4082 35.9336 65.7637 35.7285C66.1191 35.5234 66.3766 35.2568 66.5361 34.9287V33.4111H65.5449C63.9954 33.4111 63.2207 33.8646 63.2207 34.7715C63.2207 35.168 63.3529 35.4779 63.6172 35.7012C63.8815 35.9245 64.221 36.0361 64.6357 36.0361ZM75.8467 29.6035V37H74.5752V30.6494H72.0596L71.9092 33.418C71.8271 34.6895 71.613 35.5986 71.2666 36.1455C70.9248 36.6924 70.3802 36.9772 69.6328 37H69.127V35.8857L69.4893 35.8584C69.8994 35.8128 70.1934 35.5758 70.3711 35.1475C70.5488 34.7191 70.6628 33.9261 70.7129 32.7686L70.8496 29.6035H75.8467ZM79.2578 32.1533H81.1787C82.0173 32.1624 82.6803 32.3812 83.168 32.8096C83.6556 33.238 83.8994 33.819 83.8994 34.5527C83.8994 35.291 83.6488 35.8835 83.1475 36.3301C82.6462 36.7767 81.9717 37 81.124 37H77.9932V29.6035H79.2578V32.1533ZM79.2578 33.1855V35.9678H81.1377C81.6117 35.9678 81.9785 35.847 82.2383 35.6055C82.498 35.3594 82.6279 35.0244 82.6279 34.6006C82.6279 34.1904 82.5003 33.8555 82.2451 33.5957C81.9945 33.3314 81.6413 33.1947 81.1855 33.1855H79.2578ZM91.5215 37H90.2568V33.8418H86.8594V37H85.5879V29.6035H86.8594V32.8096H90.2568V29.6035H91.5215V37ZM98.3438 29.6035H99.6084V37H98.3438V31.6064L94.9326 37H93.668V29.6035H94.9326V35.0039L98.3438 29.6035ZM103.942 33.8486H103.02V37H101.748V29.6035H103.02V32.7344H103.847L106.335 29.6035H107.866L104.94 33.1582L108.112 37H106.506L103.942 33.8486ZM113.766 37C113.693 36.8542 113.633 36.5944 113.588 36.2207C113 36.8314 112.298 37.1367 111.482 37.1367C110.753 37.1367 110.154 36.9316 109.685 36.5215C109.22 36.1068 108.987 35.5827 108.987 34.9492C108.987 34.179 109.279 33.582 109.862 33.1582C110.45 32.7298 111.275 32.5156 112.337 32.5156H113.567V31.9346C113.567 31.4925 113.435 31.1416 113.171 30.8818C112.907 30.6175 112.517 30.4854 112.002 30.4854C111.551 30.4854 111.173 30.5993 110.867 30.8271C110.562 31.055 110.409 31.3307 110.409 31.6543H109.138C109.138 31.2852 109.268 30.9297 109.527 30.5879C109.792 30.2415 110.147 29.9681 110.594 29.7676C111.045 29.5671 111.539 29.4668 112.077 29.4668C112.929 29.4668 113.597 29.681 114.08 30.1094C114.563 30.5332 114.814 31.1188 114.832 31.8662V35.2705C114.832 35.9495 114.919 36.4896 115.092 36.8906V37H113.766ZM111.667 36.0361C112.063 36.0361 112.439 35.9336 112.795 35.7285C113.15 35.5234 113.408 35.2568 113.567 34.9287V33.4111H112.576C111.027 33.4111 110.252 33.8646 110.252 34.7715C110.252 35.168 110.384 35.4779 110.648 35.7012C110.913 35.9245 111.252 36.0361 111.667 36.0361ZM120.396 29.6035H121.668V35.9678H125.072V29.6035H126.337V35.9678H127.219L127.096 39.1943H125.961V37H120.396V29.6035ZM131.655 37.1367C130.653 37.1367 129.837 36.8086 129.208 36.1523C128.579 35.4915 128.265 34.6097 128.265 33.5068V33.2744C128.265 32.5407 128.404 31.8867 128.682 31.3125C128.964 30.7337 129.356 30.2826 129.857 29.959C130.363 29.6309 130.91 29.4668 131.498 29.4668C132.46 29.4668 133.207 29.7835 133.74 30.417C134.273 31.0505 134.54 31.9574 134.54 33.1377V33.6641H129.529C129.548 34.3932 129.759 34.9834 130.165 35.4346C130.575 35.8812 131.095 36.1045 131.724 36.1045C132.17 36.1045 132.549 36.0133 132.858 35.8311C133.168 35.6488 133.439 35.4072 133.672 35.1064L134.444 35.708C133.825 36.6605 132.895 37.1367 131.655 37.1367ZM131.498 30.5059C130.988 30.5059 130.559 30.6927 130.213 31.0664C129.867 31.4355 129.652 31.9551 129.57 32.625H133.275V32.5293C133.239 31.8867 133.066 31.39 132.756 31.0391C132.446 30.6836 132.027 30.5059 131.498 30.5059ZM138.491 32.3037L140.132 29.6035H141.608L139.188 33.2607L141.684 37H140.221L138.512 34.2314L136.803 37H135.333L137.828 33.2607L135.408 29.6035H136.871L138.491 32.3037ZM147.521 37C147.449 36.8542 147.389 36.5944 147.344 36.2207C146.756 36.8314 146.054 37.1367 145.238 37.1367C144.509 37.1367 143.91 36.9316 143.44 36.5215C142.976 36.1068 142.743 35.5827 142.743 34.9492C142.743 34.179 143.035 33.582 143.618 33.1582C144.206 32.7298 145.031 32.5156 146.093 32.5156H147.323V31.9346C147.323 31.4925 147.191 31.1416 146.927 30.8818C146.662 30.6175 146.273 30.4854 145.758 30.4854C145.307 30.4854 144.928 30.5993 144.623 30.8271C144.318 31.055 144.165 31.3307 144.165 31.6543H142.894C142.894 31.2852 143.023 30.9297 143.283 30.5879C143.548 30.2415 143.903 29.9681 144.35 29.7676C144.801 29.5671 145.295 29.4668 145.833 29.4668C146.685 29.4668 147.353 29.681 147.836 30.1094C148.319 30.5332 148.57 31.1188 148.588 31.8662V35.2705C148.588 35.9495 148.674 36.4896 148.848 36.8906V37H147.521ZM145.423 36.0361C145.819 36.0361 146.195 35.9336 146.551 35.7285C146.906 35.5234 147.164 35.2568 147.323 34.9287V33.4111H146.332C144.783 33.4111 144.008 33.8646 144.008 34.7715C144.008 35.168 144.14 35.4779 144.404 35.7012C144.669 35.9245 145.008 36.0361 145.423 36.0361Z" fill="#6D7A8F"/>
</g>
<defs>
<filter id="filter0_d_449_20892" x="0" y="0" width="186" height="72" filterUnits="userSpaceOnUse" color-interpolation-filters="sRGB">
<feFlood flood-opacity="0" result="BackgroundImageFix"/>
<feColorMatrix in="SourceAlpha" type="matrix" values="0 0 0 0 0 0 0 0 0 0 0 0 0 0 0 0 0 0 127 0" result="hardAlpha"/>
<feOffset dy="4"/>
<feGaussianBlur stdDeviation="10"/>
<feColorMatrix type="matrix" values="0 0 0 0 0.215686 0 0 0 0 0.290196 0 0 0 0 0.466667 0 0 0 0.2 0"/>
<feBlend mode="normal" in2="BackgroundImageFix" result="effect1_dropShadow_449_20892"/>
<feBlend mode="normal" in="SourceGraphic" in2="effect1_dropShadow_449_20892" result="shape"/>
</filter>
</defs>
</svg>
